{
    "xprot": [
        {
            "": {
                "DICOM": {
                    "EchoTrainLength": [],
                    "RFEchoTrainLength": [],
                    "GradientEchoTrainLength": [],
                    "DICOMImageFlavor": [],
                    "DICOMAcquisitionContrast": [],
                    "CommentsOnThePerformedProcedureStep": [],
                    "SoftwareVersions": [
                        "syngo MR E11"
                    ],
                    "Manufacturer": [
                        "SIEMENS"
                    ],
                    "ManufacturersModelName": [
                        "Biograph_mMR"
                    ],
                    "LongModelName": [
                        "NUMARIS/4"
                    ],
                    "InstitutionAddress": [
                        "1st Avenue 660,New York, NY,NYC S19E4E9B,US,10016"
                    ],
                    "DeviceSerialNumber": [
                        "51022"
                    ],
                    "InstitutionName": [
                        "FGP RAD"
                    ],
                    "Modality": [
                        "MR"
                    ],
                    "adFlipAngleDegree": [
                        5.0
                    ],
                    "ucTablePositioningMode": [
                        2
                    ],
                    "ulVersion": [
                        51190002
                    ],
                    "lConc": [
                        1
                    ],
                    "ReferencedImageSequence": {
                        "default": [
                            "",
                            []
                        ],
                        "data": [
                            [],
                            [],
                            []
                        ]
                    },
                    "lFrequency": [
                        123215944
                    ],
                    "lBaseResolution": [
                        64
                    ],
                    "lPhaseEncodingLines": [
                        32
                    ],
                    "ucPhasePartialFourier": [
                        16
                    ],
                    "ucSlicePartialFourier": [
                        16
                    ],
                    "dSliceResolution": [
                        0.5
                    ],
                    "lAccelFactPE": [
                        1
                    ],
                    "lAccelFact3D": [
                        1
                    ],
                    "ucPATMode": [
                        1
                    ],
                    "lSignal1": [
                        1
                    ],
                    "lMethod1": [
                        1
                    ],
                    "lSignal2": [
                        1
                    ],
                    "lMethod2": [
                        1
                    ],
                    "lPhases": [
                        1
                    ],
                    "alICEProgramPara": [
                        0,
                        0,
                        0,
                        0,
                        0,
                        0,
                        0,
                        0,
                        0,
                        0,
                        0,
                        0,
                        0,
                        0,
                        0,
                        0,
                        0,
                        0,
                        0,
                        0,
                        0,
                        0,
                        0,
                        0,
                        0,
                        0,
                        0,
                        0,
                        0,
                        0,
                        0,
                        0,
                        0,
                        0,
                        0,
                        0,
                        0,
                        0
                    ],
                    "flUsedPatientWeight": [
                        68.038864
                    ],
                    "iNoOfPreScans": [
                        98
                    ],
                    "lNumberOfTXCalibDateTime": [
                        1
                    ],
                    "atTXCalibDate": {
                        "default": [
                            "",
                            []
                        ],
                        "data": [
                            [
                                "20170716"
                            ],
                            [],
                            [],
                            [],
                            [],
                            [],
                            [],
                            []
                        ]
                    },
                    "atTXCalibTime": {
                        "default": [
                            "",
                            []
                        ],
                        "data": [
                            [
                                "110001"
                            ],
                            [],
                            [],
                            [],
                            [],
                            [],
                            [],
                            []
                        ]
                    },
                    "flGradAmplGp": [
                        46.97261
                    ],
                    "flGradAmplGr": [
                        5.871577
                    ],
                    "flGradAmplGs": [
                        46.987644
                    ],
                    "tSequenceOwner": [
                        "SIEMENS"
                    ],
                    "lGlobalTablePosSag": [],
                    "lGlobalTablePosCor": [],
                    "lGlobalTablePosTra": [],
                    "tBodyPartExamined": [
                        "BRAIN"
                    ],
                    "tLaterality": [],
                    "tPatientPosition": [
                        "HFS"
                    ],
                    "flTransRefAmpl": [
                        284.691895
                    ],
                    "alCoilPlugId": [
                        255,
                        238,
                        238,
                        34,
                        238,
                        238,
                        33,
                        50,
                        238,
                        51,
                        238
                    ],
                    "lGradDelayTimeX": [
                        29
                    ],
                    "lGradDelayTimeY": [
                        27
                    ],
                    "lGradDelayTimeZ": [
                        28
                    ],
                    "tGradientCoil": [
                        "AS097"
                    ],
                    "tPerfPhysiciansName": [
                        "LIU YIDA"
                    ],
                    "atCoilSelectInfoText": [
                        "HEA;HEP;NEP",
                        "BC",
                        "",
                        "",
                        "",
                        "",
                        "",
                        "",
                        "",
                        "",
                        "",
                        "",
                        "",
                        "",
                        "",
                        "",
                        "",
                        "",
                        "",
                        "",
                        "",
                        "",
                        "",
                        "",
                        "",
                        "",
                        "",
                        "",
                        "",
                        "",
                        "",
                        "",
                        "",
                        "",
                        "",
                        "",
                        "",
                        "",
                        "",
                        "",
                        "",
                        "",
                        "",
                        "",
                        "",
                        "",
                        "",
                        "",
                        "",
                        "",
                        "",
                        "",
                        "",
                        "",
                        "",
                        "",
                        "",
                        "",
                        "",
                        "",
                        "",
                        "",
                        "",
                        ""
                    ],
                    "flPatientAge": [
                        30.0
                    ],
                    "lPatientSex": [
                        3
                    ],
                    "tPatientName": [
                        "TEST PHANTON ONLY"
                    ],
                    "TransmittingCoil": [
                        "Body"
                    ],
                    "flReadoutOSFactor": [
                        2.0
                    ],
                    "atImagedNucleus": {
                        "default": [
                            "",
                            []
                        ],
                        "data": [
                            [
                                "1H"
                            ],
                            []
                        ]
                    },
                    "flMagneticFieldStrength": [
                        2.89362
                    ],
                    "tCurrentMppsLoid": [
                        "2.0.130291741"
                    ],
                    "tSequenceVariant": [
                        "SERVICE\\SP"
                    ],
                    "tScanningSequence": [
                        "RM"
                    ],
                    "tScanOptions": [],
                    "tMRAcquisitionType": [
                        "3D"
                    ],
                    "ProtocolChangeHistory": [],
                    "tImageComment": [],
                    "tProtocolName": [
                        "AdjCoilSens"
                    ],
                    "lSBCSOriginPositionX": [],
                    "lSBCSOriginPositionY": [],
                    "lSBCSOriginPositionZ": [
                        -1209
                    ],
                    "flPhaseOS": [],
                    "flSliceOS": []
                }
            }
        }
    ],
    "ascconv": []
}